{
  "English":{
    "title":"Air Service",
    "content":[
      "Speed, frequency and safety are just some of the operating characteristics that air service has. Inserted in an increasingly globalized world where economic growth and international trade go hand in hand, Multitransportes Internacionales air service offers integral solutions in handling all types of freight such as general, perishable and dangerous goods, commercial samples, among others; thus becoming your best strategic ally."
    ]
  },
  "Español":{
    "title":"Servicio Aéreo",
    "content":[
      "Rapidez, frecuencia y seguridad, son solo algunas de las características operativas con las que cuenta el servicio aéreo. Insertado en un mundo cada vez más globalizado, en donde el crecimiento económico y el comercio internacional van de la mano, el servicio aéreo de Multitransportes internacionales brinda soluciones integrales en el manejo de topo tipo de cargas tales como mercancías generales, productos perecederos, muestras comerciales, mercancías peligrosas, entre otras; convirtiéndose así en su gran aliado estratégico."
    ]
  }
}
