{
	"English":{
		"title":"titulo de la pagina de inicio",
		"content":[
			{
				"title":"OFICINA CENTRAL MÉXICO:",
				"body":"Negra Modelo No. 106 <br> Col. Modelo, Naucalpan de Juárez, <br> Estado de México, C.P. 53330",
				"phone": ["+525553601009","+525541708208"],
				"coord":["19.483009","-99.2306717"]
			},
			 {
				 "title":"SUCURSAL MONTERREY:",
				 "body":"Regio Av. No. 122 <br> Regio Parque Industrial, Apodaca, <br> Nuevo León, C.P. 66633",
				 "phone":["+528183311018"],
				 "coord":["25.7327417","-100.1947763"]
			 },
			 {
				 	"title":"SUCURSAL CD HIDALGO:",
					"body":"8a Sur, Prol. No. 100 <br> Col. Los Cerritos, Cd. Hidalgo Suchiate, <br> Chiapas, C.P. 30840",
					"phone":["+529626981418"],
				 	"coord":["15.8419724","-93.1740681"]
			 },
			 {
				 	"title":"SUCURSAL GUADALAJARA:",
					"body":"Av. González Gallo No. 2780 <br> Col. Mirador El Álamo, Jalisco, <br> Guadalajara, C.P. 44890",
					"phone":["+523338601508"],
					 "coord":["20.63377","-103.3254992"]
			 }
		]
	},
	"Español":{
		"title":"Sucursales",
		"content":[
			{
				"title":"OFICINA CENTRAL MÉXICO:",
				"body":"Negra Modelo No. 106 <br> Col. Modelo, Naucalpan de Juárez, <br> Estado de México, C.P. 53330",
				"phone": ["+525553601009","+525541708208"],
				"coord":["19.483009","-99.2306717"]
			},
			{
			 "title":"SUCURSAL MONTERREY:",
			 "body":"Regio Av. No. 122 <br> Regio Parque Industrial, Apodaca, <br> Nuevo León, C.P. 66633",
			 "phone":["+528183311018"],
			 "coord":["25.7327417","-100.1947763"]
			},
			{
			 	"title":"SUCURSAL CD HIDALGO:",
				"body":"8a Sur, Prol. No. 100 <br> Col. Los Cerritos, Cd. Hidalgo Suchiate, <br> Chiapas, C.P. 30840",
				"phone":["+529626981418"],
			 	"coord":["15.8419724","-93.1740681"]
			},
			{
			 	"title":"SUCURSAL GUADALAJARA:",
				"body":"Av. González Gallo No. 2780 <br> Col. Mirador El Álamo, Jalisco, <br> Guadalajara, C.P. 44890",
				"phone":["+523338601508"],
				 "coord":["20.63377","-103.3254992"]
			}
		]
	}
}
