<?xml version="1.0" encoding="UTF-8" standalone="no"?>
<!-- Generator: Adobe Illustrator 16.0.0, SVG Export Plug-In . SVG Version: 6.00 Build 0)  -->

<svg
   xmlns:dc="http://purl.org/dc/elements/1.1/"
   xmlns:cc="http://creativecommons.org/ns#"
   xmlns:rdf="http://www.w3.org/1999/02/22-rdf-syntax-ns#"
   xmlns:svg="http://www.w3.org/2000/svg"
   xmlns="http://www.w3.org/2000/svg"
   xmlns:sodipodi="http://sodipodi.sourceforge.net/DTD/sodipodi-0.dtd"
   xmlns:inkscape="http://www.inkscape.org/namespaces/inkscape"
   version="1.1"
   id="Layer_1"
   x="0px"
   y="0px"
   width="196px"
   height="128px"
   viewBox="0 0 196 128"
   enable-background="new 0 0 196 128"
   xml:space="preserve"
   inkscape:version="0.91 r13725"
   sodipodi:docname="8.svg"><metadata
     id="metadata157"><rdf:RDF><cc:Work
         rdf:about=""><dc:format>image/svg+xml</dc:format><dc:type
           rdf:resource="http://purl.org/dc/dcmitype/StillImage" /><dc:title></dc:title></cc:Work></rdf:RDF></metadata><defs
     id="defs155" /><sodipodi:namedview
     pagecolor="#ffffff"
     bordercolor="#666666"
     borderopacity="1"
     objecttolerance="10"
     gridtolerance="10"
     guidetolerance="10"
     inkscape:pageopacity="0"
     inkscape:pageshadow="2"
     inkscape:window-width="1920"
     inkscape:window-height="1017"
     id="namedview153"
     showgrid="false"
     showguides="false"
     inkscape:guide-bbox="true"
     inkscape:zoom="2.3955046"
     inkscape:cx="137.31409"
     inkscape:cy="24.072566"
     inkscape:window-x="1912"
     inkscape:window-y="-8"
     inkscape:window-maximized="1"
     inkscape:current-layer="Layer_1"><sodipodi:guide
       position="42.506024,85.012048"
       orientation="1,0"
       id="guide3489" /><sodipodi:guide
       position="16.53012,108.92169"
       orientation="0,1"
       id="guide3491" /><sodipodi:guide
       position="19.777108,81.76506"
       orientation="1,0"
       id="guide3493" /><sodipodi:guide
       position="46.933735,105.37952"
       orientation="0,1"
       id="guide3495" /><sodipodi:guide
       position="90.620482,4.1325301"
       orientation="0,1"
       id="guide3497" /></sodipodi:namedview><circle
     cx="19.75"
     cy="19.274097"
     r="17.583"
     id="circle3" /><text
     font-size="35"
     id="text5"
     x="9.0512161"
     y="31.388702"
     style="font-size:35px;font-family:MyriadPro-Regular;fill:#ffffff">8</text>
<text
     font-size="10"
     id="text7"
     x="42.454819"
     y="18.222847"
     style="font-size:10px;font-family:MyriadPro-Bold"><tspan
       style="font-style:normal;font-variant:normal;font-weight:bold;font-stretch:normal;font-size:7.5px;font-family:MyriadPro-Bold;-inkscape-font-specification:'MyriadPro-Bold Bold'"
       id="tspan3485">Entrega en destino final.</tspan></text>
<text
     id="text9"
     x="43.159637"
     y="28.179886"><tspan
       style="font-size:7.25px"
       id="tspan3429">Se entrega la mercancía en el tiempo </tspan></text>
<rect
     x="-139.14549"
     y="54.2276"
     transform="matrix(-0.90008511,-0.43571413,-0.3979737,0.91739683,0,0)"
     width="27.353161"
     height="4.5745873"
     id="rect35" /><path
     id="path5"
     d="m 79.486433,101.34198 0,-32.190861 c 0,-1.788779 -1.450046,-3.238941 -3.238942,-3.238941 l -32.174286,0 c -1.788789,0 -3.238826,1.450162 -3.238826,3.238941 l 0,32.190981 c 0,0.59626 0.483268,1.07964 1.079647,1.07964 l 36.49276,0 c 0.596379,0 1.079647,-0.48338 1.079647,-1.07976 z m -25.981745,11.0279 c 0,3.71008 3.007751,6.71772 6.717716,6.71772 3.709966,0 6.717717,-3.00764 6.717717,-6.71772 0,-3.71021 -3.007751,-6.71772 -6.717717,-6.71772 -3.709965,0 -6.717716,3.00751 -6.717716,6.71772 z m 3.358979,0 c 0,-1.85505 1.503821,-3.35887 3.358862,-3.35887 1.855041,0 3.358979,1.50382 3.358979,3.35887 0,1.85504 -1.503938,3.35898 -3.358979,3.35898 -1.855041,0 -3.358862,-1.50394 -3.358862,-3.35898 z m 9.144666,-6.71784 15.053242,0 c 0.596263,0 1.079647,0.48339 1.079647,1.07964 l 0,3.27554 c 0,0.59625 -0.483384,1.07964 -1.079647,1.07964 l -12.065886,0 c -0.315005,-2.16152 -1.406021,-4.07083 -2.987356,-5.43482 z m -47.651694,6.71784 c 0,3.71008 3.00775,6.71772 6.717716,6.71772 3.710091,0 6.717717,-3.00764 6.717717,-6.71772 0,-3.71021 -3.007626,-6.71772 -6.717717,-6.71772 -3.709966,-1.2e-4 -6.717716,3.00751 -6.717716,6.71772 z m 3.358737,0 c 0,-1.85505 1.503938,-3.35887 3.358979,-3.35887 1.855166,0 3.358863,1.50382 3.358863,3.35887 0,1.85504 -1.503822,3.35898 -3.358863,3.35898 -1.855041,0 -3.358979,-1.50394 -3.358979,-3.35898 z m -15.2347318,-5.6382 0,3.27554 c 0,0.59625 0.4833844,1.07964 1.0796472,1.07964 l 8.7410206,0 c 0.625193,-4.2878 4.315372,-7.59411 8.772793,-7.59411 4.458297,0 8.148592,3.30644 8.773785,7.59411 l 17.601221,0 c 0.31513,-2.1614 1.40602,-4.07083 2.987365,-5.43482 l -16.689095,0 0,-30.881269 c 0,-1.192518 -0.966778,-2.159293 -2.159295,-2.159293 l -10.192541,0 c -2.86991,0 -5.55228,1.425559 -7.158095,3.804045 l -6.57084,9.732151 c -0.963811,1.427537 -1.478842,3.110615 -1.478842,4.833129 l 0,14.671237 -2.6274766,0 c -0.5962628,0 -1.0796472,0.48339 -1.0796472,1.07964 z M 17.433135,86.396909 22.687463,78.93062 c 0.202251,-0.287313 0.531601,-0.45829 0.882954,-0.45829 l 8.195942,0 c 0.596138,0 1.079647,0.483387 1.079647,1.079646 l 0,7.466289 c 0,0.596384 -0.483384,1.079648 -1.079647,1.079648 l -13.450519,0 c -0.874545,0 -1.386126,-0.985689 -0.882705,-1.701004 z"
     inkscape:connector-curvature="0" /><g
     id="g37"
     transform="matrix(-0.89370775,0,0,0.94407395,191.58432,1.9607059)" /><g
     transform="matrix(0.06330329,0,0,0.06330329,148.20107,78.493977)"
     id="g3"><path
       inkscape:connector-curvature="0"
       d="m 336.884,124.068 -46.766,0 0,23.178 -21.847,0 0,-23.178 -47.053,0 c -17.006,0 -30.792,13.786 -30.792,30.793 l 0,72.24 53.449,49.99 c 3.494,3.271 6.207,7.116 8.347,11.241 l 84.663,0 c 17.006,0 30.793,-13.786 30.793,-30.792 l 0,-102.68 c -10e-4,-17.006 -13.786,-30.792 -30.794,-30.792 z m -44.227,89.278 0,45.25 -27.332,0 0,-45.25 c -18.631,0 -18.626,0 -19.322,0 l 33.107,-39.178 32.986,39.322 c 0.003,0 -0.187,-0.144 -19.439,-0.144 z M 11.757,63.349 C 11.757,28.362 40.12,0 75.106,0 c 34.986,0 63.349,28.362 63.349,63.349 0,34.987 -28.362,63.349 -63.349,63.349 C 40.119,126.697 11.757,98.335 11.757,63.349 Z m 218.971,258.062 c -4.067,4.351 -9.579,6.551 -15.1,6.551 -5.057,0 -10.128,-1.848 -14.116,-5.572 l -85.062,-79.56 0,121.952 c 0,13.018 -6.138,24.488 -15.544,32.066 l 46.132,189.595 c 2.7,11.092 -4.108,22.275 -15.201,24.971 -1.64,0.404 -3.286,0.585 -4.9,0.585 -9.316,0 -17.77,-6.329 -20.071,-15.785 L 80.376,487.347 65.458,591.602 C 63.833,602.896 53.351,610.759 42.066,609.134 30.762,607.519 22.914,597.052 24.528,585.747 L 51.324,398.514 C 40.729,391.028 33.763,378.742 33.763,364.783 l 0,-160.516 c 0,-22.832 18.512,-41.343 41.343,-41.343 5.284,0 10.294,1.084 14.94,2.891 3.638,0.73 7.137,2.385 10.046,5.103 l 129.66,121.272 c 8.339,7.803 8.778,20.884 0.976,29.221 z M 536.896,126.697 c -34.986,0 -63.35,-28.362 -63.35,-63.349 0,-34.987 28.363,-63.348 63.35,-63.348 34.987,0 63.348,28.362 63.348,63.349 0,34.987 -28.362,63.348 -63.348,63.348 z M 382.247,292.19 511.907,170.918 c 2.908,-2.718 6.408,-4.373 10.047,-5.103 4.645,-1.808 9.654,-2.891 14.939,-2.891 22.832,0 41.344,18.511 41.344,41.343 l 0,160.515 c 0,13.959 -6.967,26.245 -17.561,33.731 l 26.795,187.233 c 1.615,11.305 -6.232,21.771 -17.537,23.387 -11.285,1.625 -21.766,-6.238 -23.391,-17.532 L 531.625,487.346 505.133,596.213 c -2.3,9.458 -10.753,15.787 -20.07,15.787 -1.615,0 -3.26,-0.182 -4.9,-0.585 -11.092,-2.695 -17.9,-13.879 -15.199,-24.972 L 511.095,396.849 C 501.689,389.271 495.55,377.8 495.55,364.782 l 0,-121.952 -85.061,79.56 c -3.988,3.726 -9.061,5.572 -14.117,5.572 -5.52,0 -11.031,-2.2 -15.1,-6.551 -7.8,-8.337 -7.361,-21.418 0.975,-29.221 z"
       id="path5-6" /></g><g
     transform="matrix(-0.05239018,0,0,0.05239018,138.74175,85.882067)"
     id="g3-7"><path
       inkscape:connector-curvature="0"
       d="m 40.121,105.553 c -11.42,-34.613 7.447,-72.068 42.064,-83.49 34.617,-11.422 72.07,7.451 83.49,42.064 l 129.897,393.695 c -12.105,-3.196 -24.979,-3.781 -37.831,-1.431 L 131.984,75.244 C 126.692,59.204 109.341,50.463 93.302,55.755 77.262,61.047 68.521,78.398 73.813,94.437 c 3.069,9.303 -1.984,19.335 -11.288,22.404 -9.303,3.069 -19.334,-1.985 -22.404,-11.288 z m 511.792,308.84 -212.828,70.222 c 7.553,8.575 13.54,18.769 17.342,30.288 0.135,0.411 0.211,0.826 0.34,1.238 L 563.03,448.085 c 9.303,-3.069 14.357,-13.101 11.288,-22.403 -3.07,-9.305 -13.103,-14.359 -22.405,-11.289 z M 339.582,520.465 c 12.059,36.547 -7.794,75.949 -44.34,88.008 -36.547,12.059 -75.949,-7.793 -88.008,-44.34 -12.059,-36.548 7.794,-75.949 44.34,-88.008 36.547,-12.06 75.95,7.793 88.008,44.34 z m -33.087,10.916 c -6.029,-18.273 -25.729,-28.198 -44.004,-22.169 -18.273,6.028 -28.199,25.73 -22.17,44.003 6.029,18.273 25.73,28.199 44.004,22.171 18.273,-6.03 28.199,-25.732 22.17,-44.005 z m 191.632,-384.036 72.256,218.997 c 1.535,4.651 -0.992,9.667 -5.644,11.202 l -227.42,75.035 c -4.651,1.535 -9.667,-0.992 -11.201,-5.644 L 253.862,227.938 c -1.535,-4.652 0.992,-9.667 5.644,-11.202 L 486.925,141.7 c 4.652,-1.533 9.667,0.993 11.202,5.645 z m -30.083,127.214 -77.438,-42.605 -36.864,80.319 24.407,11.233 15.939,-34.747 28.781,87.232 27.545,-9.088 -28.777,-87.219 33.477,18.427 12.93,-23.552 z M 400.472,143.908 354.276,3.896 c -0.981,-2.974 -4.188,-4.59 -7.162,-3.608 l -39.611,13.069 -0.194,0.356 -0.332,-0.182 -20.899,6.896 17.21,52.159 -23.573,7.778 -17.209,-52.159 -20.906,6.898 -0.158,0.344 -0.37,-0.17 -39.354,12.985 c -2.975,0.981 -4.589,4.188 -3.608,7.162 l 46.197,140.013 c 0.981,2.974 4.188,4.59 7.162,3.608 l 145.398,-47.974 c 2.971,-0.982 4.587,-4.189 3.605,-7.163 z"
       id="path5-5" /></g><text
     id="text9-5"
     x="42.789371"
     y="37.47168"><tspan
       style="font-size:7.25px"
       id="tspan3429-1">establecido en el destino final.</tspan></text>
</svg>